%YAML 1.1
%TAG !u! tag:unity3d.com,2011:
--- !u!1045 &1
EditorBuildSettings:
  m_ObjectHideFlags: 0
  serializedVersion: 2
  m_Scenes:
  - enabled: 1
    path: Assets/Scene/MainMenu.unity
    guid: 1727b1a8ea04d264e9cc0bea52f4f132
  - enabled: 1
    path: Assets/Scene/Gameplay.unity
    guid: 21ff6cff05abe0e41844de705922a356
  m_configObjects: {}
